%YAML 1.1
%TAG !u! tag:unity3d.com,2011:
--- !u!114 &11400000
MonoBehaviour:
  m_ObjectHideFlags: 0
  m_CorrespondingSourceObject: {fileID: 0}
  m_PrefabInstance: {fileID: 0}
  m_PrefabAsset: {fileID: 0}
  m_GameObject: {fileID: 0}
  m_Enabled: 1
  m_EditorHideFlags: 0
  m_Script: {fileID: 11500000, guid: bbb281ee3bf0b054c82ac2347e9e782c, type: 3}
  m_Name: Default Local Group
  m_EditorClassIdentifier: 
  m_GroupName: Default Local Group
  m_Data:
    m_SerializedData: []
  m_GUID: 502192fbe1952484e90a9370b8f93293
  m_SerializeEntries: []
  m_ReadOnly: 0
  m_Settings: {fileID: 11400000, guid: f74b63da93591d74d8c2f06c4ae3497a, type: 2}
  m_SchemaSet:
    m_Schemas:
    - {fileID: 11400000, guid: 3a8018cdd200f614189db452e09fad99, type: 2}
    - {fileID: 11400000, guid: 39caf5e677ce1484ca94b87b6344ae6e, type: 2}
