%YAML 1.1
%TAG !u! tag:unity3d.com,2011:
--- !u!114 &11400000
MonoBehaviour:
  m_ObjectHideFlags: 0
  m_CorrespondingSourceObject: {fileID: 0}
  m_PrefabInstance: {fileID: 0}
  m_PrefabAsset: {fileID: 0}
  m_GameObject: {fileID: 0}
  m_Enabled: 1
  m_EditorHideFlags: 0
  m_Script: {fileID: 11500000, guid: ed343e2c98bb4b829420de496afff125, type: 3}
  m_Name: Location1
  m_EditorClassIdentifier: 
  _developerDescription: 
  _id: 
  _value:
    _sceneAsset: {fileID: 102900000, guid: 6c05ada673e5879439ddd04dc5078e12, type: 3}
    _sceneName: Location1
    _scenePath: Assets/Scenes/Play/Location1.unity
    _buildIndex: 1
  _changed: {fileID: 0}
  _changedWithHistory: {fileID: 0}
  _triggerChangedOnOnEnable: 0
  _triggerChangedWithHistoryOnOnEnable: 0
  _oldValue:
    _sceneAsset: {fileID: 102900000, guid: 6c05ada673e5879439ddd04dc5078e12, type: 3}
    _sceneName: Location1
    _scenePath: Assets/Scenes/Play/Location1.unity
    _buildIndex: 1
  _initialValue:
    _sceneAsset: {fileID: 102900000, guid: 6c05ada673e5879439ddd04dc5078e12, type: 3}
    _sceneName: Location1
    _scenePath: Assets/Scenes/Play/Location1.unity
    _buildIndex: 1
  _preChangeTransformers: []
